{
  "data": [
    {
      "id": "23",
      "commerce": "San ignacio",
      "cuit": "11012312",
      "concept1": 1,
      "concept2": 2,
      "concept3": 3,
      "concept4": 4,
      "concept5": 5,
      "concept6": 6,
      "balance": 120000,
      "active": false,
      "lastSell": "12/02/2020"
   },
   {
    "id": "230",
    "commerce": "San Vicente",
    "cuit": "11012312",
    "concept1": 1,
    "concept2": 2,
    "concept3": 3,
    "concept4": 4,
    "concept5": 5,
    "concept6": 6,
    "balance": 120000,
    "active": true,
    "lastSell": "12/02/2020"
 },
 {
  "id": "23000",
  "commerce": "San Marcos",
  "cuit": "11012312",
  "concept1": 1,
  "concept2": 2,
  "concept3": 3,
  "concept4": 4,
  "concept5": 5,
  "concept6": 6,
  "balance": 120000,
  "active": false,
  "lastSell": "12/03/2020"
},
{
  "id": "255",
  "commerce": "Casa Nueva",
  "cuit": "11012312",
  "concept1": 1,
  "concept2": 2,
  "concept3": 3,
  "concept4": 4,
  "concept5": 5,
  "concept6": 6,
  "balance": 120000,
  "active": true,
  "lastSell": "01/03/2020"
},
{
  "id": "1234",
  "commerce": "Campos Eliseos",
  "cuit": "11012312",
  "concept1": 1,
  "concept2": 2,
  "concept3": 3,
  "concept4": 4,
  "concept5": 5,
  "concept6": 6,
  "balance": 120000,
  "active": false,
  "lastSell": "12/01/2020"
},
{
  "id": "1189",
  "commerce": "Tierras de Jack",
  "cuit": "1189541",
  "concept1": 1,
  "concept2": 2,
  "concept3": 3,
  "concept4": 4,
  "concept5": 5,
  "concept6": 6,
  "balance": 120000,
  "active": false,
  "lastSell": "12/01/2020"
}
  ],
  "page": 1,
  "pages": 100,
  "rowsPerPage": 10,
  "total": 1000
}